digraph {
	274915088352 [label=prog]
	274915089808 [label=expr]
	274915088352 -> 274915089808
	274915089472 [label=expr]
	274915089808 -> 274915089472
	274915088576 [label=expr]
	274915089472 -> 274915088576
	274915088688 [label=term]
	274915088576 -> 274915088688
	274915088800 [label=form]
	274915088688 -> 274915088800
	274915969856 [label=1]
	274915088800 -> 274915969856
	274915974144 [label="+"]
	274915089472 -> 274915974144
	274915089584 [label=term]
	274915089472 -> 274915089584
	274915089696 [label=form]
	274915089584 -> 274915089696
	274915974208 [label=2]
	274915089696 -> 274915974208
	274915974656 [label="+"]
	274915089808 -> 274915974656
	274915089920 [label=term]
	274915089808 -> 274915089920
	274915090032 [label=form]
	274915089920 -> 274915090032
	274915975104 [label=3]
	274915090032 -> 274915975104
}
